Example with GS Demo Data • gradebook
…
This function applies the pivot-longer function to allow for unit of
observation be a student + individual assignment.

pivot_df <- gs_demo |>
    lower_colnames() |>
    #check_data_names() |> need to add REGEX
    process_id() |>
    process_assignments() |>
    pivot_gs()
#> Important Message
#> ℹ The ID columns from Gradescope are names, email, sid, and sections

pivot_df
#> # A tibble: 100 × 9
#>    names  email    sid sections assignments raw_score max_points submission_time
#>    <chr>  <chr>  <dbl> <chr>    <chr>           <dbl>      <dbl> <chr>          
#>  1 Dr. K… Dr.K… 3.03e9 fake-cl… lab_1               9         10 1/19/23 22:20  
#>  2 Dr. K… Dr.K… 3.03e9 fake-cl… lab_2               5         20 9/21/22 23:54  
#>  3 Dr. K… Dr.K… 3.03e9 fake-cl… lab_3               7         15 1/24/23 20:38  
#>  4 Dr. K… Dr.K… 3.03e9 fake-cl… lab_4               9         10 1/26/23 19:51  
#>  5 Dr. K… Dr.K… 3.03e9 fake-cl… lab_5               0          5 1/31/23 18:59  
#>  6 Dr. K… Dr.K… 3.03e9 fake-cl… lab_6               4         10 2/2/23 12:16   
#>  7 Dr. K… Dr.K… 3.03e9 fake-cl… discussion…         4          4 2/7/23 20:53   
#>  8 Dr. K… Dr.K… 3.03e9 fake-cl… discussion…         4          4 2/10/23 0:49   
#>  9 Dr. K… Dr.K… 3.03e9 fake-cl… midterm            44         50 2/14/23 21:06  
#> 10 Dr. K… Dr.K… 3.03e9 fake-cl… final              10        100 1/20/23 15:13  
#> # ℹ 90 more rows
#> # ℹ 1 more variable: `lateness_(h_m_s)` <drtn>
…
policy_demo|>
    check_names()|>
    check_assignment_names(pivot_df = pivot_df) |>
    create_assigns_table() |>
    data_merge_assigns(pivot_df = pivot_df)
#> # A tibble: 100 × 20
#>    names  email    sid sections assignments raw_score max_points submission_time
#>    <chr>  <chr>  <dbl> <chr>    <chr>           <dbl>      <dbl> <chr>          
#>  1 Dr. K… Dr.K… 3.03e9 fake-cl… lab_1               9         10 1/19/23 22:20  
#>  2 Dr. K… Dr.K… 3.03e9 fake-cl… lab_2               5         20 9/21/22 23:54  
#>  3 Dr. K… Dr.K… 3.03e9 fake-cl… lab_3               7         15 1/24/23 20:38  
#>  4 Dr. K… Dr.K… 3.03e9 fake-cl… lab_4               9         10 1/26/23 19:51  
#>  5 Dr. K… Dr.K… 3.03e9 fake-cl… lab_5               0          5 1/31/23 18:59  
#>  6 Dr. K… Dr.K… 3.03e9 fake-cl… lab_6               4         10 2/2/23 12:16   
#>  7 Dr. K… Dr.K… 3.03e9 fake-cl… discussion…         4          4 2/7/23 20:53   
#>  8 Dr. K… Dr.K… 3.03e9 fake-cl… discussion…         4          4 2/10/23 0:49   
#>  9 Dr. K… Dr.K… 3.03e9 fake-cl… midterm            44         50 2/14/23 21:06  
#> 10 Dr. K… Dr.K… 3.03e9 fake-cl… final              10        100 1/20/23 15:13  
#> # ℹ 90 more rows
#> # ℹ 12 more variables: `lateness_(h_m_s)` <drtn>, category <chr>,
#> #   slipdays <dbl>, late_time1 <chr>, late_time2 <chr>, late_scale1 <dbl>,
#> #   late_scale2 <dbl>, after <lgl>, weights <dbl>, drops <dbl>,
#> #   weighted_method <chr>, clobber <chr>
…
